{
    "movies": [
      { "id": 1, "title": "Amélie", "releaseDate": "2001-04-25" },
      { "id": 2, "title": "La La Land", "releaseDate": "2016-08-31" },
      { "id": 3, "title": "La Vie d'Adèle", "releaseDate": "2013-05-23" },
      { "id": 4, "title": "The Artist", "releaseDate": "2011-05-15" },
      { "id": 5, "title": "Intouchables", "releaseDate": "2011-11-02" },
      { "id": 6, "title": "Les Parapluies de Cherbourg", "releaseDate": "1964-02-19" },
      { "id": 7, "title": "Un prophète", "releaseDate": "2009-05-16" },
      { "id": 8, "title": "Le Scaphandre et le Papillon", "releaseDate": "2007-05-22" },
      { "id": 9, "title": "La Haine", "releaseDate": "1995-05-31" },
      { "id": 10, "title": "Portrait de la jeune fille en feu", "releaseDate": "2019-05-19" },
      { "id": 11, "title": "Coco avant Chanel", "releaseDate": "2009-04-22" },
      { "id": 12, "title": "Persepolis", "releaseDate": "2007-05-23" },
      { "id": 13, "title": "Le Ballon rouge", "releaseDate": "1956-10-19" },
      { "id": 14, "title": "À bout de souffle", "releaseDate": "1960-03-16" },
      { "id": 15, "title": "Les Quatre Cents Coups", "releaseDate": "1959-05-04" },
      { "id": 16, "title": "Amour", "releaseDate": "2012-05-20" },
      { "id": 17, "title": "Delicatessen", "releaseDate": "1991-04-17" },
      { "id": 18, "title": "La Classe américaine", "releaseDate": "2008-05-24" },
      { "id": 19, "title": "Nikita", "releaseDate": "1990-02-21" },
      { "id": 20, "title": "Caché", "releaseDate": "2005-05-14" }
    ]
}
  